<?xml version="1.0" encoding="utf-8"?>
<!-- Generator: Adobe Illustrator 22.1.0, SVG Export Plug-In . SVG Version: 6.00 Build 0)  -->
<svg version="1.1" id="Layer_1" xmlns="http://www.w3.org/2000/svg" xmlns:xlink="http://www.w3.org/1999/xlink" x="0px" y="0px"
	 viewBox="0 0 41 41" style="enable-background:new 0 0 41 41;" xml:space="preserve">
<style type="text/css">
	.st0{fill:#955E14;}
</style>
<path class="st0" d="M33.5,7.5L33.5,7.5c-6.5-6.5-14-8.6-21-5.8l-1.3,0.5L12,3.4c0.2,0.2,0.3,0.5,0.5,0.7C10.7,5,9,6.2,7.5,7.7
	C4,11.2,1.6,17.1,0.8,23.9c-0.5,4.7-0.2,8.9,0.9,11.6c0.2,0.8,0.6,1.4,1.1,1.9l0.1,0.1l0.2,0.2c0,0.1,0.1,0.1,0.2,0.1l0,0.2
	c1.8,1.6,5.1,2.5,9.3,2.5h0.2c6.6,0,15.5-2.2,20.4-7.2c1.6-1.6,2.8-3.3,3.8-5c0.2,0.2,0.5,0.3,0.7,0.5l1.2,0.7l0.5-1.3
	C42,21.3,39.9,13.9,33.5,7.5z M30.6,17.6c-4.8,4-9.2,3.1-10.6,2.6c-0.1-0.2-0.2-0.5-0.2-0.9c-0.2-0.7-0.2-1.5-0.2-2.3
	c0.1-2.6,1.1-5.2,3.1-7.5l2-2.4l-3.1,0.5V8l-0.1-0.4c-0.7,0-3.4-0.2-6.4-3.9l-0.3-0.4c0,0,0,0,0-0.1C20.5,1.6,26.6,3.6,32,9
	c5.3,5.3,7.4,11.3,5.9,16.9c0,0,0,0-0.1,0l-0.4-0.3c-5.1-3.7-4.7-7-4.7-7.1l0.5-3.1L30.6,17.6z M22,31c0.2-0.3,0.2-0.6,0.1-0.9
	s-0.3-0.5-0.5-0.7c-0.5-0.3-1.3-0.2-1.6,0.4c-2.3,3.7-7.8,6.4-11.9,6.9c-1.6,0.2-2.9,0-3.5-0.5c-0.2-0.8,2-6.1,5.8-8.8
	c0.2-0.2,0.4-0.5,0.5-0.8c0-0.3,0-0.6-0.2-0.9c-0.2-0.2-0.5-0.4-0.8-0.5c-0.3,0-0.6,0-0.9,0.2c-2.1,1.6-4,4.2-5.2,6.4
	c0.6-4,3.2-9.2,6.8-11.4c0.3-0.2,0.4-0.4,0.5-0.7c0.1-0.3,0-0.6-0.1-0.9c-0.3-0.5-1-0.7-1.6-0.4c-3.1,1.9-5.3,5.4-6.6,8.5
	C2.8,26,2.9,25,3,24.1c0.7-6.2,3-11.8,6.1-14.8c1.5-1.5,3-2.6,4.7-3.4c2.2,2.5,4.3,3.5,5.8,3.9c0,0.1-0.1,0.1-0.1,0.2l-0.2,0.2
	c-0.1,0.1-0.1,0.2-0.2,0.2c-0.1,0.1-0.1,0.2-0.2,0.3l-0.2,0.4c-0.1,0.1-0.2,0.3-0.2,0.4c0,0.1-0.1,0.1-0.1,0.2l-0.1,0.1
	c-0.1,0.3-0.2,0.5-0.3,0.8v0.1c-1.7,4.4-0.5,7.9-0.1,8.9l0.2,0.4l0.4,0.2c0.9,0.4,4,1.5,7.9,0.3h0.1c0.3-0.1,0.6-0.2,0.9-0.3h0.1
	c0.2-0.1,0.4-0.2,0.6-0.2l0.3-0.1c0.1,0,0.2-0.1,0.2-0.1c0.1-0.1,0.2-0.1,0.4-0.2l0.4-0.2c0.1-0.1,0.2-0.1,0.4-0.2
	c0.1,0,0.2-0.1,0.2-0.2l0.3-0.2c0,0,0.1,0,0.1-0.1c0.4,1.7,1.6,4,4.7,6.4c-0.8,1.7-2,3.2-3.5,4.7l0,0c-4.5,4.5-12.7,6.5-18.8,6.5
	h-0.1c-0.3,0-0.5,0-0.8,0C15.7,37,19.9,34.5,22,31z"/>
</svg>
