<?xml version="1.0" standalone="no"?>
<!DOCTYPE svg PUBLIC "-//W3C//DTD SVG 20010904//EN"
 "http://www.w3.org/TR/2001/REC-SVG-20010904/DTD/svg10.dtd">
<svg version="1.0" xmlns="http://www.w3.org/2000/svg"
 width="300.000000pt" height="300.000000pt" viewBox="0 0 300.000000 300.000000"
 preserveAspectRatio="xMidYMid meet">
<metadata>
Created by potrace 1.11, written by Peter Selinger 2001-2013
</metadata>
<g transform="translate(0.000000,300.000000) scale(0.100000,-0.100000)"
fill="#000000" stroke="none">
<path d="M1384 2939 c-4 -8 -3 -9 4 -5 17 10 14 -5 -4 -29 -15 -19 -15 -19
-12 -1 2 10 -3 21 -11 24 -8 2 -11 0 -8 -5 3 -5 -3 -15 -15 -22 -11 -7 -18 -9
-15 -4 3 5 2 15 -4 23 -7 13 -9 12 -9 -2 0 -13 -7 -16 -34 -11 -19 3 -36 1
-40 -6 -4 -6 -12 -11 -18 -11 -6 0 -5 6 2 16 12 13 10 14 -13 3 -15 -7 -24
-15 -22 -20 3 -4 -4 -5 -15 -2 -11 3 -20 9 -20 14 0 5 -6 9 -12 9 -7 -1 -2
-10 11 -20 21 -18 21 -20 5 -21 -11 -1 -23 -1 -27 0 -5 1 -6 -9 -3 -21 l6 -23
-11 23 c-7 12 -16 22 -21 22 -5 0 -6 5 -2 12 4 7 3 8 -4 4 -9 -5 -9 -13 -1
-28 7 -12 7 -18 1 -14 -6 3 -12 3 -15 -1 -2 -5 -2 -3 -1 4 2 7 -2 15 -8 19 -7
4 -8 3 -4 -4 4 -7 2 -12 -4 -12 -6 0 -9 -4 -6 -9 3 -4 0 -16 -8 -26 -11 -15
-13 -16 -13 -1 0 9 5 16 11 16 6 0 5 5 -2 12 -9 9 -15 8 -26 -7 -8 -11 -12
-24 -9 -30 3 -5 0 -5 -7 2 -13 12 -40 7 -52 -11 -5 -7 -8 -7 -8 2 0 14 40 33
54 24 5 -3 6 1 1 8 -5 8 -4 11 2 7 5 -3 10 0 10 8 0 13 -2 13 -16 1 -9 -8 -29
-16 -45 -19 -17 -2 -32 -10 -34 -18 -3 -11 -2 -11 7 1 8 12 10 11 8 -7 -1 -17
-4 -19 -14 -11 -7 6 -13 7 -13 3 0 -4 -6 -4 -13 1 -7 5 -4 1 6 -8 11 -10 14
-19 8 -19 -32 -4 -36 -6 -33 -18 1 -7 -2 -10 -7 -7 -5 4 -12 2 -15 -3 -4 -5
-18 -7 -33 -5 -24 5 -25 3 -12 -13 12 -16 11 -16 -9 1 -19 17 -22 17 -22 3 0
-10 -4 -17 -10 -17 -5 0 -10 6 -10 13 0 8 -4 7 -10 -3 -14 -21 -12 -33 3 -24
7 4 9 3 4 -2 -5 -5 -14 -9 -20 -9 -7 0 -12 -5 -12 -12 0 -6 -3 -15 -7 -19 -4
-3 -6 3 -3 15 2 11 0 21 -6 21 -5 0 -9 -7 -9 -17 0 -14 -2 -14 -22 3 -13 10
-17 12 -10 4 14 -16 16 -34 3 -26 -4 3 -19 -3 -31 -14 -19 -17 -21 -22 -10
-35 11 -13 11 -16 -1 -13 -8 2 -17 8 -21 13 -5 6 -8 3 -8 -7 0 -18 -33 -42
-44 -31 -5 6 -10 -19 -7 -39 0 -4 -8 -5 -19 -3 -11 2 -20 -1 -20 -6 0 -6 -6
-7 -12 -3 -9 5 -9 2 1 -9 16 -20 2 -23 -19 -4 -8 7 -7 1 3 -15 19 -31 16 -36
-7 -12 -15 14 -16 14 -16 -1 0 -9 -5 -13 -10 -10 -6 3 -10 1 -10 -5 0 -7 9 -9
23 -5 22 6 22 6 1 -7 -12 -7 -19 -20 -17 -28 2 -8 -2 -5 -9 7 l-13 22 -13 -29
c-9 -20 -18 -27 -30 -24 -15 5 -15 4 -2 -5 12 -8 19 -5 32 12 10 12 18 18 18
14 0 -5 -8 -19 -18 -32 -14 -18 -22 -21 -36 -13 -16 9 -17 8 -6 -12 10 -18 9
-21 -1 -15 -9 6 -10 3 -5 -10 5 -14 4 -15 -7 -7 -10 8 -13 6 -14 -9 -1 -11 2
-17 8 -14 5 4 9 2 9 -4 0 -5 -6 -11 -12 -14 -10 -3 -9 -8 2 -23 14 -17 14 -18
-2 -6 -18 14 -34 1 -23 -20 4 -7 -3 -2 -14 11 -18 20 -21 21 -18 5 1 -11 7
-25 11 -33 6 -10 5 -12 -2 -7 -7 4 -12 1 -12 -8 0 -9 -11 -23 -26 -32 -17 -12
-22 -20 -15 -27 14 -14 14 -27 0 -27 -5 0 -8 4 -5 8 2 4 -7 8 -22 9 -24 2 -24
1 -7 -7 11 -5 16 -9 12 -9 -4 -1 -3 -9 2 -19 6 -12 6 -23 -1 -33 -8 -12 -9
-11 -5 3 8 23 -3 30 -19 13 -15 -15 -19 -29 -6 -21 5 3 9 -1 9 -9 0 -8 -4 -12
-9 -9 -4 3 -8 -2 -8 -11 0 -10 5 -13 12 -9 7 4 8 3 4 -5 -4 -6 -12 -9 -17 -5
-7 4 -9 -6 -5 -26 5 -36 -1 -60 -16 -60 -7 0 -7 4 -1 13 13 15 13 47 1 47 -5
0 -6 -10 -2 -22 6 -20 5 -21 -9 -10 -12 10 -17 10 -23 1 -4 -7 -3 -9 4 -5 6 3
13 2 17 -3 3 -5 -3 -14 -12 -20 -11 -6 -13 -11 -5 -11 7 0 10 -5 7 -10 -4 -6
-12 -7 -18 -3 -9 5 -9 3 0 -8 9 -11 9 -19 2 -26 -8 -8 -8 -13 0 -17 14 -9 14
-26 0 -26 -5 0 -8 4 -5 9 3 5 -1 12 -9 15 -14 5 -14 2 0 -24 13 -26 13 -30 -1
-44 -14 -15 -11 -20 9 -17 5 1 6 -3 2 -9 -4 -6 -16 -8 -28 -4 -21 6 -21 6 -3
-8 15 -12 16 -17 6 -23 -9 -6 -11 -4 -5 5 6 9 4 11 -4 6 -13 -9 -6 -21 11 -21
24 0 17 -24 -9 -33 -15 -6 -21 -11 -12 -11 9 -1 24 -11 35 -23 19 -22 19 -22
0 -8 -18 14 -19 13 -13 -3 4 -11 3 -16 -4 -12 -6 4 -8 14 -5 22 3 8 2 11 -3 8
-6 -3 -9 -14 -8 -25 1 -19 10 -25 31 -21 5 1 4 -5 -3 -13 -7 -8 -10 -20 -6
-27 5 -7 0 -7 -16 2 -21 11 -22 10 -12 -3 7 -8 9 -19 5 -23 -4 -5 1 -5 10 -2
10 4 18 2 18 -3 0 -6 -9 -10 -20 -10 -11 0 -20 -5 -20 -11 0 -5 3 -8 8 -5 4 2
15 -9 25 -25 9 -17 13 -28 9 -25 -13 8 -35 -11 -27 -24 6 -9 9 -10 15 0 5 9 9
9 14 1 4 -6 2 -12 -3 -12 -6 -1 -15 -2 -20 -3 -5 0 -13 -5 -18 -10 -5 -6 -2
-6 6 -1 10 6 13 4 9 -6 -6 -16 16 -41 28 -31 5 4 3 0 -4 -9 -6 -9 -8 -20 -4
-24 4 -5 1 -5 -6 -1 -7 4 -10 11 -7 16 3 5 2 11 -3 14 -4 2 -8 -6 -8 -20 0
-13 6 -24 12 -24 7 0 16 -4 19 -10 3 -5 0 -7 -8 -4 -8 3 -20 -3 -28 -13 -12
-16 -12 -17 2 -6 22 18 33 3 11 -14 -9 -8 -11 -12 -4 -8 7 4 12 0 12 -9 0 -8
-6 -17 -12 -20 -7 -3 -2 -3 11 0 17 5 21 3 16 -7 -6 -9 -3 -11 9 -6 10 4 15 3
11 -4 -4 -5 -15 -7 -25 -4 -10 3 -21 2 -24 -3 -3 -5 1 -9 9 -10 8 -1 22 -3 30
-4 20 -2 19 -14 -1 -22 -8 -3 -13 -2 -9 3 6 11 -21 8 -32 -3 -4 -4 -3 -7 2 -6
20 4 30 0 18 -8 -8 -5 -9 -13 -3 -22 8 -13 10 -12 10 3 0 9 7 17 15 17 8 0 15
-8 15 -17 0 -12 -3 -14 -8 -6 -5 8 -11 3 -19 -13 -10 -22 -10 -24 3 -13 8 6
18 8 22 4 4 -4 1 -10 -5 -12 -7 -3 -13 -9 -13 -15 0 -7 5 -6 14 1 10 8 16 8
25 -3 6 -8 11 -18 9 -22 -1 -5 4 -20 11 -33 8 -14 9 -21 2 -17 -6 4 -11 2 -11
-4 0 -6 -4 -8 -10 -5 -6 3 -7 -1 -3 -10 5 -13 7 -14 14 -3 6 8 9 0 9 -24 0
-20 -6 -38 -12 -41 -7 -3 -4 -5 7 -5 29 -1 53 -7 62 -16 4 -4 1 -6 -7 -4 -8 2
-14 -3 -12 -11 1 -7 -2 -19 -8 -26 -9 -11 -7 -12 9 -8 11 3 18 10 17 16 -2 7
-1 9 1 4 3 -4 9 -5 13 -2 5 3 12 1 15 -5 4 -6 1 -9 -6 -8 -7 2 -13 -6 -14 -17
0 -11 -4 -27 -10 -35 -7 -13 -6 -13 7 -2 13 10 17 10 22 -4 9 -23 8 -24 -11
-18 -17 5 -17 5 -1 -6 9 -6 15 -16 12 -23 -3 -8 6 -19 20 -25 18 -8 24 -17 20
-29 -5 -17 -5 -17 6 0 6 9 8 22 5 27 -3 6 1 7 10 4 12 -5 13 -10 4 -20 -6 -7
-8 -17 -5 -23 3 -5 0 -12 -6 -14 -10 -4 -10 -6 0 -6 8 -1 10 -6 6 -13 -4 -7
-3 -10 1 -5 10 8 46 -43 39 -55 -3 -4 6 -4 20 2 30 11 44 -3 25 -27 -11 -13
-10 -17 5 -28 10 -8 24 -11 32 -8 20 7 17 -7 -4 -24 -9 -8 -12 -12 -6 -9 7 3
17 -1 24 -10 7 -8 19 -13 27 -10 8 3 25 -5 38 -18 13 -13 26 -22 28 -20 2 2 4
-3 4 -13 0 -13 -3 -12 -18 5 l-17 22 2 -24 c1 -19 6 -22 30 -19 23 2 27 0 24
-15 -6 -21 18 -26 42 -8 8 6 6 0 -5 -13 l-20 -24 21 11 c28 15 48 -6 40 -40
-3 -13 -3 -18 0 -11 3 7 12 9 20 6 7 -3 11 -10 7 -16 -3 -6 -1 -7 5 -3 7 4 12
2 12 -5 0 -8 4 -8 15 1 9 7 18 10 22 6 3 -3 1 -6 -5 -6 -7 0 -12 -5 -12 -11 0
-5 5 -7 10 -4 6 3 10 -3 10 -13 0 -15 5 -19 20 -15 11 3 20 10 20 15 0 5 5 6
10 3 6 -4 1 -14 -12 -26 -23 -19 -23 -19 15 -3 22 8 36 11 33 5 -4 -5 3 -12
14 -16 11 -3 20 -13 20 -21 0 -8 4 -14 10 -14 5 0 7 6 4 14 -7 18 12 30 22 15
4 -8 3 -9 -4 -5 -19 11 -14 -5 6 -20 13 -11 14 -13 1 -9 -9 4 -16 0 -16 -9 0
-8 6 -12 15 -9 8 3 18 0 24 -8 7 -10 8 -7 3 11 -5 22 -4 23 5 7 7 -10 9 -25 6
-33 -4 -10 -2 -13 7 -7 35 22 63 12 58 -19 0 -5 4 -8 10 -8 6 0 8 7 4 18 -5
13 -4 14 6 5 15 -15 53 2 43 19 -4 7 -2 8 5 4 8 -5 9 -12 2 -20 -8 -10 -12
-56 -4 -56 1 0 14 11 28 25 14 14 25 22 25 17 0 -4 -5 -13 -12 -20 -9 -9 -8
-12 4 -12 9 0 19 6 21 13 4 9 6 9 6 0 1 -7 6 -13 12 -13 5 0 7 4 4 10 -3 6 1
7 10 4 14 -6 14 -8 -2 -19 -10 -8 -15 -17 -10 -21 4 -4 7 -2 7 5 0 7 5 9 10 6
8 -5 7 -12 -2 -23 -12 -16 -11 -16 6 -2 10 8 33 16 50 16 17 1 36 3 41 4 27 6
36 -1 30 -22 -6 -22 -5 -22 7 -3 14 22 38 31 38 15 0 -5 -5 -10 -12 -10 -6 0
-9 -3 -5 -6 3 -3 20 1 37 10 24 12 31 12 27 2 -4 -9 3 -12 21 -11 37 2 72 -14
65 -31 -3 -8 -10 -11 -16 -7 -6 4 -7 1 -2 -6 4 -8 11 -9 17 -3 8 8 11 17 17
52 1 3 6 -2 11 -10 6 -10 4 -23 -6 -40 l-15 -25 21 24 c11 13 18 31 15 41 -3
10 2 23 12 31 15 11 16 11 6 -1 -15 -17 -17 -34 -3 -25 14 9 12 -19 -2 -33 -7
-7 -8 -12 -3 -12 6 0 3 -5 -5 -10 -12 -7 -10 -9 7 -7 14 1 19 5 13 12 -4 6 -1
16 8 25 9 8 17 13 18 10 1 -3 6 -1 11 4 4 5 3 6 -3 3 -7 -4 -14 -1 -17 7 -4
10 0 12 15 8 16 -4 19 -2 13 9 -5 8 -5 11 0 7 4 -4 14 -3 20 2 9 8 15 5 19 -7
6 -13 9 -14 15 -4 6 10 10 9 14 -4 4 -9 3 -13 -3 -10 -6 3 -10 1 -10 -5 0 -7
6 -10 13 -7 6 2 11 17 10 33 -2 21 0 25 7 14 5 -8 6 -18 4 -22 -3 -4 4 -8 16
-8 14 0 19 -4 14 -13 -5 -9 -4 -9 6 0 13 12 4 37 -11 28 -5 -3 -6 1 -3 10 6
14 8 14 19 -1 11 -16 13 -16 22 1 7 12 13 14 17 6 4 -6 3 -11 -2 -11 -6 0 -13
-7 -16 -16 -5 -14 -4 -15 9 -4 8 7 22 9 31 6 14 -5 15 -4 4 9 -19 22 -4 18 18
-5 l19 -21 -2 26 c-4 30 -2 31 16 8 12 -14 12 -16 0 -8 -10 6 -12 4 -6 -5 6
-10 13 -7 27 11 11 13 17 19 14 13 -3 -7 1 -15 10 -18 8 -3 12 -2 9 4 -3 6 -2
10 4 10 5 0 15 -8 20 -17 9 -15 10 -12 7 12 -2 17 -1 24 1 18 7 -21 22 -15 18
7 -5 27 3 25 15 -3 l9 -22 2 23 c3 36 4 40 11 48 4 3 6 -3 3 -14 -2 -12 1 -25
7 -28 7 -4 8 -2 4 4 -9 16 7 15 22 0 7 -7 12 -10 13 -7 0 2 2 12 4 22 2 11 -1
15 -8 10 -8 -5 -8 -2 0 9 7 8 11 17 8 19 -2 3 5 5 15 6 11 1 22 -3 25 -8 4 -5
11 -7 16 -3 5 3 17 0 26 -8 10 -8 14 -8 10 -1 -8 13 27 28 42 18 5 -3 13 0 17
6 4 8 3 9 -4 5 -7 -4 -12 -2 -12 4 0 6 -4 9 -8 6 -4 -2 -8 6 -8 19 0 14 2 22
6 19 3 -3 5 -10 5 -16 0 -6 8 -12 18 -14 9 -1 17 2 17 7 0 6 5 7 12 3 7 -5 8
-3 4 5 -5 7 -15 10 -25 6 -12 -5 -13 -4 -4 6 9 9 17 8 36 -4 24 -15 25 -15 20
3 -3 11 -10 17 -16 13 -5 -3 -7 -1 -4 5 4 5 15 9 25 7 9 -1 23 2 31 8 7 6 24
12 37 13 27 1 54 21 54 39 0 7 9 15 21 18 17 4 19 10 14 29 l-8 23 20 -24 c15
-19 22 -21 28 -11 5 8 4 11 -2 7 -6 -4 -13 0 -16 7 -4 10 0 13 14 11 16 -3 17
-1 9 15 -8 15 -6 17 9 13 10 -3 22 1 26 8 6 8 4 10 -5 4 -8 -5 -11 -4 -6 3 4
6 13 9 21 5 18 -6 20 13 3 21 -9 4 -8 5 2 5 40 -3 49 2 45 21 -4 23 10 36 21
19 4 -8 3 -9 -4 -5 -8 5 -10 2 -6 -9 5 -13 9 -12 25 6 15 17 16 26 7 43 -10
19 -8 19 17 -4 l28 -25 -17 27 c-17 25 -16 27 8 52 31 30 35 22 5 -10 -16 -17
-17 -23 -6 -27 9 -3 14 1 13 11 0 9 5 16 12 14 6 -1 11 1 11 5 -1 5 -1 15 0
23 1 12 3 12 10 2 7 -11 9 -10 14 3 4 9 3 13 -3 10 -6 -3 -10 -1 -10 5 0 6 -6
8 -12 4 -7 -4 -5 2 5 13 9 11 15 22 12 24 -2 3 6 5 18 6 12 0 16 -1 9 -4 -6
-3 -9 -10 -6 -15 5 -7 2 -8 -6 -3 -9 6 -11 4 -5 -5 12 -19 33 13 30 45 -3 21
0 23 15 15 23 -12 32 -2 19 21 -7 14 -7 19 2 17 16 -4 28 44 16 60 -6 7 -6 12
-1 11 21 -4 28 2 14 12 -12 8 -10 9 7 4 18 -5 22 -3 17 9 -4 9 -1 16 6 16 7 0
10 6 7 14 -6 16 19 43 30 32 3 -3 1 -6 -4 -6 -6 0 -10 -11 -9 -25 2 -14 -1
-22 -7 -18 -6 4 -7 1 -2 -7 5 -8 4 -11 -1 -7 -5 3 -10 -4 -10 -15 0 -20 1 -20
15 2 8 13 16 28 17 34 10 54 15 70 26 78 10 6 10 8 1 8 -7 0 -13 4 -13 10 0 5
8 6 17 3 15 -6 16 -5 3 9 -14 16 -16 16 -28 0 -6 -9 -10 -24 -6 -34 3 -10 1
-18 -4 -18 -13 0 -8 46 6 63 9 10 8 17 -1 27 -10 12 -9 12 5 2 9 -7 18 -9 20
-5 3 4 3 3 2 -4 -2 -7 2 -15 8 -19 7 -5 8 -2 3 6 -5 9 -1 11 16 6 13 -3 18 -3
11 0 -6 3 -9 11 -6 16 4 6 2 8 -4 4 -17 -10 -20 18 -3 32 14 11 13 12 -9 7
-21 -5 -22 -4 -7 5 9 6 15 15 13 19 -3 4 1 8 8 8 8 0 12 -11 11 -28 -1 -16 2
-26 7 -23 5 3 7 11 5 17 -2 7 0 20 5 31 7 13 7 16 -1 12 -6 -4 -11 -3 -11 3 0
6 -8 8 -17 4 -19 -7 -18 -5 11 17 18 13 19 13 11 0 -8 -13 -7 -13 8 -1 18 14
23 26 8 17 -5 -3 -11 1 -15 9 -3 9 0 15 9 15 8 0 15 5 15 11 0 6 -10 8 -22 5
-13 -3 -17 -3 -10 0 6 3 10 10 7 15 -4 5 2 6 12 2 15 -6 14 -1 -6 32 -17 30
-19 36 -5 24 16 -12 17 -12 11 4 -4 11 -3 16 4 12 5 -4 7 -15 4 -24 -3 -11 2
-24 12 -32 16 -13 17 -12 5 3 -10 13 -11 22 -2 39 7 12 8 19 2 15 -5 -3 -13 1
-16 10 -5 12 -2 15 10 10 14 -5 15 -4 5 8 -10 11 -10 20 -1 37 10 17 9 20 -2
17 -7 -3 -13 -10 -13 -15 0 -6 -2 -14 -5 -17 -4 -3 -6 5 -6 19 0 13 4 21 8 19
4 -3 8 -1 8 4 0 5 12 8 28 6 l27 -4 -28 11 c-15 6 -25 15 -21 20 3 5 12 5 23
0 13 -7 20 -5 29 10 12 18 11 19 -9 7 -18 -11 -22 -11 -26 0 -4 10 -10 9 -27
-5 -18 -16 -18 -15 2 9 15 16 20 28 13 33 -6 3 -11 2 -11 -3 0 -6 -7 -13 -16
-16 -13 -5 -14 -4 -6 7 7 8 8 18 4 22 -4 5 -1 5 6 1 7 -4 12 -2 13 6 1 7 2 19
3 27 0 8 9 15 18 17 14 2 16 -1 8 -16 -14 -27 -12 -32 10 -25 15 5 18 3 14 -9
-3 -8 -11 -14 -17 -12 -7 1 -9 1 -4 -1 4 -3 7 -9 7 -14 0 -6 -5 -7 -12 -3 -7
5 -8 3 -3 -6 6 -10 11 -10 20 3 7 9 14 15 16 13 2 -2 4 17 5 42 0 26 -1 41 -3
34 -3 -6 -9 -10 -13 -7 -5 3 -7 12 -4 20 4 8 11 12 16 9 6 -4 6 1 -1 13 -6 11
-7 23 -4 27 3 3 2 6 -4 6 -14 0 -24 -26 -17 -45 4 -9 1 -15 -7 -15 -20 0 -16
60 5 72 9 5 21 6 27 2 7 -4 7 1 -1 16 -7 13 -17 19 -27 16 -9 -4 -13 -1 -10 6
2 7 9 12 15 11 16 -4 3 24 -14 31 -8 3 -14 1 -14 -4 0 -6 5 -10 11 -10 8 0 8
-5 -1 -15 -7 -8 -18 -15 -24 -14 -7 0 -6 2 2 6 6 2 12 9 12 14 0 6 -4 7 -10 4
-6 -4 -7 1 -3 11 5 13 3 15 -8 9 -11 -6 -12 -5 -1 6 6 7 12 17 12 22 0 4 -6 5
-12 1 -7 -4 -10 -4 -6 1 4 4 3 15 -2 25 -6 12 -5 17 4 17 7 0 13 -7 12 -15 0
-8 5 -16 12 -18 7 -1 8 0 2 3 -5 2 -10 9 -10 14 0 6 6 7 13 4 6 -4 3 2 -8 12
-25 24 -30 43 -9 43 8 0 13 -4 9 -9 -3 -5 -2 -12 3 -15 5 -3 9 2 9 10 0 9 -10
20 -23 24 -32 13 -38 29 -9 25 17 -1 22 1 17 9 -5 6 -8 23 -7 37 1 14 -3 26
-10 26 -6 0 -11 -11 -11 -23 0 -12 4 -20 10 -17 5 3 6 1 2 -5 -13 -21 -25 -13
-23 16 1 18 -2 26 -11 24 -8 -1 -11 2 -7 8 3 6 11 8 16 5 5 -4 9 -1 9 5 0 6 4
8 10 5 6 -3 7 1 4 9 -3 9 -10 16 -16 16 -5 0 -7 -4 -4 -8 3 -5 -2 -9 -10 -9
-10 0 -11 4 -4 11 13 13 13 36 0 36 -6 0 -9 -3 -8 -7 2 -5 -1 -9 -7 -10 -5 -2
-10 5 -10 15 0 9 -6 20 -15 24 -13 5 -12 7 2 7 11 1 15 6 12 16 -4 11 -2 13 9
9 8 -3 17 -1 21 4 6 10 -24 10 -41 -1 -14 -9 -25 17 -16 40 4 11 3 14 -5 9 -8
-5 -10 -2 -6 8 3 9 10 13 15 10 5 -3 6 2 3 11 -5 11 -10 13 -19 5 -11 -9 -12
-7 -8 9 3 12 9 19 12 16 4 -2 8 2 8 10 0 8 -9 12 -27 10 -18 -3 -30 3 -39 17
-7 11 -8 17 -2 14 5 -4 12 -2 16 4 3 5 -1 10 -9 10 -19 0 -21 17 -4 22 7 3 5
7 -6 11 -9 4 -15 3 -12 -1 2 -4 0 -14 -5 -22 -7 -11 -8 -8 -5 12 3 15 -1 29
-7 31 -7 2 -5 3 3 2 9 -1 22 4 29 12 11 12 10 14 -5 11 -11 -2 -18 2 -17 8 3
14 -29 13 -40 -1 -5 -6 -6 -3 -3 8 3 9 9 25 12 35 5 14 4 14 -4 2 -9 -12 -13
-12 -30 3 -10 9 -21 14 -25 11 -3 -3 -4 2 -3 13 3 18 -12 53 -27 64 -4 3 -9
15 -10 27 0 12 -3 19 -5 17 -3 -2 -11 2 -19 10 -8 8 -19 15 -26 15 -6 0 -3 -6
7 -13 17 -13 18 -14 2 -20 -9 -4 -14 -3 -11 2 3 5 0 13 -6 17 -9 5 -7 11 5 19
15 11 15 13 1 19 -9 3 -13 11 -9 17 4 7 3 9 -3 6 -6 -4 -18 2 -28 13 -15 16
-21 18 -33 7 -11 -8 -14 -8 -9 0 4 6 3 14 -3 18 -5 3 -10 -2 -11 -12 0 -15 -2
-14 -9 4 -6 16 -15 21 -27 17 -15 -5 -15 -4 -3 4 8 7 19 7 25 2 7 -6 16 -1 25
13 12 20 12 21 -4 8 -14 -12 -19 -11 -37 4 -11 11 -17 25 -14 34 5 13 4 13 -6
4 -10 -10 -9 -17 6 -33 10 -11 13 -20 7 -20 -6 0 -16 14 -24 30 -13 31 -35 43
-24 13 6 -15 4 -15 -14 2 -21 19 -27 30 -10 20 5 -3 18 -1 27 4 16 9 15 10 -7
8 -16 -1 -24 3 -23 10 2 7 0 12 -5 12 -21 -4 -32 2 -26 14 4 7 3 9 -2 4 -5 -5
-9 -14 -9 -19 0 -6 -7 -13 -15 -15 -9 -3 -11 -1 -5 4 16 13 13 50 -4 49 -9 -1
-15 5 -13 12 1 8 -2 11 -7 8 -5 -4 -11 -3 -14 1 -2 5 -2 3 -1 -4 2 -7 -1 -15
-6 -18 -6 -4 -10 0 -10 8 0 8 -7 21 -17 28 -15 13 -15 12 -5 -8 9 -16 9 -24 0
-29 -7 -4 -8 -3 -4 5 4 6 0 14 -8 17 -9 3 -13 11 -9 18 3 6 3 8 -2 4 -13 -13
-37 13 -25 27 7 8 5 12 -5 12 -8 0 -11 -5 -8 -10 3 -5 0 -7 -8 -5 -8 3 -13 10
-12 15 1 5 -4 10 -12 10 -8 0 -12 -4 -10 -8 3 -4 -3 -6 -12 -4 -10 2 -22 4
-26 4 -5 1 -5 6 -2 11 3 6 -1 10 -9 10 -9 0 -16 5 -16 12 0 6 -3 8 -6 5 -4 -4
-1 -13 6 -22 8 -10 9 -15 1 -15 -6 0 -11 5 -11 11 0 8 -5 7 -16 -1 -8 -8 -14
-9 -13 -4 4 23 -2 36 -15 31 -16 -6 -50 26 -39 36 3 4 1 7 -5 7 -7 0 -12 -4
-12 -10 0 -5 -9 -10 -20 -10 -11 0 -20 4 -20 9 0 5 -7 12 -16 15 -14 5 -15 4
-5 -8 8 -10 9 -16 1 -21 -6 -4 -9 -1 -8 7 2 7 -3 12 -11 10 -7 -1 -19 2 -25 8
-7 5 -17 6 -21 2 -5 -4 -5 -1 0 7 6 10 2 11 -15 6 -17 -5 -20 -4 -15 5 5 8 3
11 -6 8 -8 -3 -13 -10 -12 -15 1 -5 -4 -10 -12 -10 -8 0 -12 3 -10 7 2 3 0 12
-6 20 -7 13 -9 13 -9 0 0 -13 -1 -13 -10 0 -9 13 -14 11 -32 -10 l-21 -25 8
24 c5 16 4 21 -4 17 -6 -4 -11 -1 -11 6 0 9 -3 9 -10 -2 -5 -8 -10 -10 -10 -5
0 6 -7 -1 -16 -15 -14 -23 -14 -23 -9 -2 7 23 3 25 -48 24 -17 0 -25 3 -21 10
4 6 2 8 -4 4 -6 -3 -9 -16 -7 -28 4 -17 2 -19 -7 -10 -15 15 -32 16 -23 2 4
-6 -1 -7 -11 -3 -11 4 -13 8 -6 11 20 6 13 17 -12 17 -13 0 -22 -4 -19 -9 3
-5 0 -6 -8 -4 -8 3 -19 -4 -25 -15 -7 -13 -14 -16 -18 -8 -4 6 -2 11 3 11 13
0 14 27 2 35 -5 3 -13 0 -17 -6z m203 -31 c-3 -8 -6 -5 -6 6 -1 11 2 17 5 13
3 -3 4 -12 1 -19z m63 2 c0 -5 -5 -10 -11 -10 -5 0 -7 5 -4 10 3 6 8 10 11 10
2 0 4 -4 4 -10z m47 -12 c-3 -8 -6 -5 -6 6 -1 11 2 17 5 13 3 -3 4 -12 1 -19z
m-233 3 c4 -5 -3 -7 -14 -4 -23 6 -26 13 -6 13 8 0 17 -4 20 -9z m106 -1 c0
-5 -5 -10 -11 -10 -5 0 -7 5 -4 10 3 6 8 10 11 10 2 0 4 -4 4 -10z m389 -69
c-1 -13 -2 -13 -6 2 -2 9 -9 17 -14 17 -5 0 -9 5 -9 11 0 8 5 8 15 -1 8 -7 14
-20 14 -29z m23 -13 c-7 -7 -12 -8 -12 -2 0 14 12 26 19 19 2 -3 -1 -11 -7
-17z m178 -58 c17 -16 27 -30 22 -30 -5 0 -18 11 -30 25 -22 25 -60 36 -46 13
4 -7 3 -8 -5 -4 -6 4 -9 12 -6 17 11 17 34 9 65 -21z m110 -45 c11 -13 10 -14
-4 -9 -9 3 -16 10 -16 15 0 13 6 11 20 -6z m58 -63 c-7 -10 -14 -19 -15 -21
-3 -4 2 28 6 47 1 2 6 0 11 -3 8 -5 7 -12 -2 -23z m-1638 -11 c0 -5 -10 -8
-22 -7 -14 1 -22 -4 -20 -11 1 -7 -2 -13 -8 -13 -13 0 -13 13 0 26 12 12 50
16 50 5z m1834 -120 c22 -23 24 -30 12 -34 -11 -4 -13 -1 -9 11 6 15 4 15 -9
4 -14 -11 -16 -10 -11 7 3 12 1 21 -6 21 -6 0 -11 5 -11 10 0 15 4 13 34 -19z
m-1994 -15 c0 -3 -4 -8 -10 -11 -5 -3 -10 -1 -10 4 0 6 5 11 10 11 6 0 10 -2
10 -4z m2073 -84 c11 -23 11 -29 1 -29 -7 0 -13 3 -12 6 0 3 0 15 -1 26 -1 17
-3 18 -11 5 -5 -8 -10 -10 -10 -4 0 10 9 24 16 24 1 0 9 -13 17 -28z m-2173
-42 c0 -5 -5 -10 -11 -10 -5 0 -7 5 -4 10 3 6 8 10 11 10 2 0 4 -4 4 -10z
m1417 -234 c-3 -6 2 -17 9 -24 10 -9 14 -9 14 -1 0 8 4 8 16 -1 8 -8 14 -9 13
-4 -4 20 2 31 16 31 8 0 15 -4 15 -8 0 -4 6 -9 13 -12 8 -3 14 1 14 9 0 7 -4
11 -9 8 -4 -3 -5 2 -2 10 6 16 25 23 23 9 -3 -20 2 -30 16 -30 11 0 12 4 3 14
-8 11 -7 12 6 7 9 -3 16 -16 17 -28 0 -20 1 -20 8 -1 5 11 6 24 3 29 -3 5 0 6
7 2 6 -4 9 -12 6 -17 -3 -5 1 -6 10 -3 10 4 15 2 13 -6 -2 -7 7 -13 19 -15 14
-1 19 3 16 12 -4 11 -8 11 -22 1 -14 -11 -14 -11 -4 3 11 14 29 16 76 10 4 -1
7 -5 7 -10 0 -6 -9 -8 -20 -6 -11 2 -20 -1 -20 -7 0 -5 6 -8 14 -5 7 3 23 -1
35 -9 11 -8 21 -12 21 -9 0 3 10 1 23 -5 21 -11 21 -10 3 4 -10 9 -23 13 -29
9 -6 -4 -7 -1 -2 7 6 9 4 11 -4 5 -10 -6 -11 -3 -2 14 13 24 26 29 17 6 -5
-15 26 -39 38 -28 3 3 6 -1 6 -10 0 -9 5 -19 11 -22 6 -4 9 0 7 10 -2 10 4 20
12 22 13 4 13 3 0 -6 -12 -8 -12 -11 -1 -11 7 0 11 -6 8 -14 -6 -15 16 -40 26
-30 3 4 13 -1 23 -10 12 -12 20 -14 29 -6 9 7 15 7 19 1 4 -5 -2 -15 -11 -21
-15 -8 -13 -9 10 -4 21 5 27 2 27 -10 0 -9 5 -16 11 -16 5 0 7 4 4 10 -3 6 1
7 9 4 18 -7 22 -25 5 -22 -6 2 -13 -3 -14 -10 -2 -7 -1 -8 1 -3 5 10 51 -29
47 -39 -1 -3 7 -6 18 -6 13 0 18 5 14 16 -3 9 1 7 11 -5 8 -11 20 -19 25 -17
5 1 8 -4 7 -10 -2 -7 3 -12 10 -10 18 3 15 -6 -7 -17 -15 -9 -18 -7 -17 7 0 9
-5 16 -12 14 -8 -1 -11 2 -7 7 3 6 -4 8 -16 6 -28 -6 -41 -18 -14 -13 15 2 19
-2 17 -17 l-4 -20 17 20 c16 20 16 20 10 -2 -5 -17 -2 -23 9 -23 19 0 21 -11
5 -27 -7 -7 -5 -10 8 -10 34 0 43 -3 43 -14 0 -6 -8 -8 -17 -5 -17 6 -17 5 -1
-7 10 -8 20 -25 22 -38 3 -13 5 -26 6 -29 2 -3 2 -8 2 -11 -1 -3 6 -6 14 -6
18 0 18 2 -1 20 -12 13 -11 17 8 33 12 10 17 13 11 5 -14 -15 -6 -54 9 -44 6
3 7 1 3 -5 -4 -7 0 -12 11 -13 14 0 15 -2 3 -6 -19 -8 -44 -33 -33 -33 5 0 14
5 20 11 9 9 9 2 3 -25 -6 -25 -4 -40 4 -49 7 -7 18 -24 25 -37 l12 -25 -21 25
c-21 25 -21 25 -10 1 9 -18 9 -25 0 -31 -8 -5 -7 -9 5 -13 9 -4 13 -3 10 3 -3
6 -1 10 4 10 13 0 13 -3 5 -24 -3 -8 -13 -12 -22 -9 -9 3 -3 -5 13 -17 28 -20
29 -21 5 -15 -21 5 -23 4 -10 -7 8 -7 16 -19 18 -27 3 -12 1 -12 -14 0 -16 13
-16 12 -7 -6 5 -11 9 -27 8 -35 -1 -8 3 -20 7 -27 5 -6 5 -14 -1 -17 -11 -7
-9 -25 3 -45 6 -10 5 -12 -2 -7 -7 4 -12 3 -12 -2 0 -6 -10 -8 -22 -5 -20 4
-20 3 -6 -6 19 -13 18 -43 -3 -49 -11 -3 -11 -1 1 8 13 10 13 11 0 7 -19 -5
-20 -24 -3 -59 10 -21 10 -28 0 -34 -6 -4 -9 -4 -5 1 10 11 -11 47 -23 40 -5
-4 -9 -12 -9 -18 0 -7 4 -6 10 3 6 10 9 5 8 -18 -1 -35 -12 -49 -24 -31 -4 8
-3 9 4 5 18 -11 14 10 -5 25 -12 10 -15 11 -9 1 4 -7 2 -20 -5 -29 -7 -8 -13
-25 -14 -37 0 -12 -6 -20 -13 -18 -9 2 -11 -2 -6 -10 13 -20 13 -38 1 -35 -7
1 -12 -7 -12 -18 0 -11 -4 -19 -9 -18 -14 4 -16 33 -3 33 7 0 4 5 -6 11 -10 6
-21 8 -24 5 -4 -3 0 -6 8 -6 11 0 11 -2 -1 -10 -11 -7 -11 -10 -2 -10 7 0 11
-4 7 -10 -3 -5 -13 -7 -23 -4 -14 5 -14 4 -2 -4 8 -6 18 -8 22 -6 4 3 8 0 8
-6 0 -6 -13 -8 -32 -6 -18 3 -27 3 -20 0 21 -9 13 -29 -19 -48 -29 -17 -29
-19 -12 -32 17 -14 16 -14 -4 -4 -18 8 -24 7 -33 -7 -10 -16 -11 -16 -6 2 6
19 6 19 -9 1 -8 -10 -12 -23 -8 -29 3 -6 1 -7 -5 -3 -5 3 -13 0 -16 -6 -3 -9
-10 -7 -21 7 -17 20 -17 20 -10 -2 5 -18 3 -22 -9 -17 -9 3 -16 1 -16 -5 0 -6
5 -11 10 -11 6 0 10 -4 10 -9 0 -5 -8 -8 -17 -6 -10 1 -17 9 -15 17 1 9 -5 18
-13 22 -9 3 -14 2 -11 -3 3 -4 -11 -23 -31 -42 -20 -19 -33 -28 -29 -21 4 7 2
12 -6 13 -7 0 -22 2 -32 4 -21 4 -49 -18 -38 -31 4 -5 3 -6 -2 -1 -5 4 -18 -1
-29 -10 -11 -10 -17 -12 -13 -6 5 9 0 13 -14 13 -13 0 -19 -4 -14 -12 4 -7 3
-8 -5 -4 -9 6 -9 11 -1 21 8 10 8 15 -1 21 -7 4 -9 3 -6 -3 7 -11 -20 -28 -37
-24 -5 1 -13 -4 -17 -11 -7 -10 -9 -10 -9 1 0 11 -3 11 -16 1 -13 -11 -16 -10
-21 8 -3 12 -9 19 -14 16 -5 -3 -6 -10 -3 -16 4 -7 2 -8 -5 -4 -6 4 -9 11 -6
16 3 5 1 11 -4 14 -5 4 -13 1 -17 -5 -4 -8 -3 -9 4 -5 8 5 10 1 5 -9 -4 -12
-8 -13 -13 -5 -4 6 -10 11 -14 11 -19 -3 -27 0 -22 7 2 4 -4 9 -15 9 -16 2
-18 -1 -10 -11 8 -10 8 -16 -3 -25 -11 -9 -15 -8 -19 3 -4 11 -1 13 11 9 15
-6 15 -4 4 10 -8 9 -11 21 -7 27 4 6 1 9 -7 8 -7 -2 -12 3 -10 11 2 11 0 12
-11 3 -19 -16 -30 -3 -14 17 10 14 10 14 -4 4 -9 -7 -20 -9 -25 -5 -5 4 0 -3
10 -15 10 -13 22 -20 26 -18 5 3 6 -4 3 -15 -7 -26 -16 -31 -33 -18 -12 8 -12
9 3 4 27 -9 21 23 -8 36 -13 6 -22 15 -18 21 4 6 1 7 -6 3 -9 -6 -8 -12 4 -26
11 -12 13 -20 5 -25 -6 -4 -9 -1 -8 7 2 7 -2 12 -8 11 -6 -1 -11 3 -12 10 0 7
-3 21 -6 32 -2 11 -5 25 -5 30 -1 6 -5 3 -11 -5 -5 -9 -5 -19 2 -27 6 -8 8
-16 4 -20 -3 -3 -6 0 -6 8 0 12 -2 11 -11 -1 -8 -13 -9 -12 -7 4 2 10 -3 21
-11 24 -8 2 -11 0 -8 -5 3 -5 0 -10 -8 -10 -12 0 -12 3 -2 16 10 12 9 14 -5 8
-12 -4 -21 0 -28 13 -6 12 -17 17 -28 14 -13 -5 -14 -4 -3 4 9 7 23 4 46 -10
25 -14 35 -16 41 -7 4 8 3 9 -4 5 -7 -4 -12 -2 -12 4 0 6 -4 8 -10 5 -5 -3
-22 6 -37 21 -15 15 -35 27 -44 28 -21 1 -79 51 -79 68 0 7 5 5 13 -4 11 -16
13 -16 27 0 13 14 12 15 -2 10 -16 -6 -64 33 -53 44 3 2 -2 5 -10 5 -8 0 -12
-4 -9 -8 2 -4 1 -10 -4 -13 -4 -2 -9 4 -9 15 -1 10 4 19 12 19 8 0 16 3 18 8
3 4 -5 7 -18 7 -13 0 -22 -2 -20 -5 2 -3 -1 -12 -7 -20 -8 -12 -9 -12 -4 2 3
10 -2 22 -12 28 -16 11 -16 11 1 6 21 -7 22 3 1 32 -8 12 -13 22 -9 22 3 0 -1
13 -9 29 -10 18 -12 32 -5 39 5 7 6 10 3 7 -4 -3 -14 1 -22 8 -13 10 -14 9 -7
-3 14 -22 14 -37 1 -37 -7 0 -12 10 -12 21 1 14 -4 20 -14 18 -12 -3 -12 -1
-3 9 9 9 10 16 1 26 -8 11 -7 12 6 7 10 -4 15 -13 12 -21 -4 -8 -1 -11 5 -8 6
4 8 14 5 22 -4 9 1 21 9 27 13 9 11 11 -11 13 -18 1 -22 -2 -14 -7 8 -5 4 -8
-14 -7 -20 2 -23 4 -13 12 17 13 43 60 28 51 -6 -4 -11 0 -11 9 0 9 4 14 9 11
18 -11 4 27 -14 40 -16 12 -16 14 -3 14 9 0 20 5 24 12 4 6 3 9 -2 6 -5 -3
-16 1 -24 10 -13 14 -12 15 3 9 9 -3 19 -1 23 5 4 7 3 8 -4 4 -11 -6 -14 -1
-11 20 0 3 -8 12 -18 20 -17 14 -16 14 5 4 12 -6 20 -16 16 -22 -4 -7 -3 -8 4
-4 9 5 8 15 -3 36 -11 21 -12 31 -3 36 6 4 8 3 5 -3 -4 -6 0 -16 7 -22 11 -9
16 -9 22 0 4 7 3 9 -4 5 -6 -3 -13 -2 -16 3 -4 5 -2 12 3 16 5 3 8 15 6 27 -6
29 7 46 17 22 8 -18 8 -18 5 1 -2 11 -9 19 -18 17 -8 -2 -11 0 -7 4 4 4 3 12
-2 19 -7 8 -5 12 5 12 8 0 12 -4 10 -8 -3 -4 2 -9 10 -12 12 -5 12 -2 3 18 -6
14 -16 21 -22 18 -6 -4 -3 5 7 20 17 26 17 27 0 28 -14 0 -15 2 -3 6 8 3 21
13 29 22 12 14 13 14 7 -4 -4 -11 -4 -16 0 -12 4 4 12 3 18 -3 8 -6 12 -2 13
13 2 15 0 18 -6 9 -6 -10 -10 -8 -14 8 -4 16 -2 20 8 16 8 -3 21 2 30 10 13
13 13 19 3 32 -12 14 -10 14 12 2 25 -13 25 -13 6 8 -10 12 -23 19 -29 15 -6
-3 -7 -1 -3 6 5 8 16 5 39 -11 l32 -22 -22 25 c-13 14 -23 29 -23 35 0 5 4 3
9 -5 12 -19 41 -6 41 18 0 11 9 25 20 31 11 6 19 14 19 18 -4 21 3 23 22 6 22
-19 22 -19 10 4 -6 12 -17 22 -23 22 -6 0 -8 3 -5 7 4 3 19 -4 34 -18 14 -13
23 -18 18 -10 -6 11 -4 13 8 8 11 -4 14 -2 10 9 -4 10 -9 12 -18 4 -9 -8 -14
-6 -18 4 -4 10 -1 13 9 9 7 -3 14 0 14 7 0 10 4 9 16 -1 13 -10 17 -10 25 2
14 22 11 39 -6 33 -8 -4 -15 -2 -15 4 0 12 17 10 46 -5 16 -10 21 -9 21 2 0 8
-4 12 -8 9 -4 -2 -11 1 -15 7 -4 8 -3 9 4 5 11 -7 17 6 13 27 -1 5 3 6 9 2 6
-3 8 -10 5 -15 -7 -12 5 -40 17 -40 6 0 5 6 -2 15 -15 18 -7 19 23 4 21 -10
21 -10 -1 8 -22 18 -21 33 2 33 6 0 4 -5 -4 -10 -13 -8 -13 -10 2 -10 9 0 20
10 23 21 4 12 10 18 14 13 16 -23 37 -11 32 19 0 4 4 7 10 7 6 0 8 -9 4 -20
-4 -11 -2 -20 4 -20 10 0 15 13 12 32 0 4 9 5 20 3 15 -3 19 0 15 11 -3 9 -2
12 5 9 6 -4 8 -12 6 -19z m46 6 c-2 -10 -11 -19 -19 -19 -11 0 -11 4 3 19 9
10 17 18 19 18 1 0 0 -8 -3 -18z m911 -27 c-4 -8 -11 -12 -16 -9 -6 4 -5 10 3
15 19 12 19 11 13 -6z m-2559 -23 c-3 -3 -11 0 -18 7 -9 10 -8 11 6 5 10 -3
15 -9 12 -12z m2052 -26 c-7 -13 -15 -22 -20 -19 -5 3 -1 14 9 24 22 25 24 24
11 -5z m43 -38 c0 -4 -9 0 -19 9 -11 9 -17 21 -14 26 6 10 33 -19 33 -35z
m-730 -2 c0 -3 -4 -8 -10 -11 -5 -3 -10 -1 -10 4 0 6 5 11 10 11 6 0 10 -2 10
-4z m800 -16 c0 -5 -2 -10 -4 -10 -3 0 -8 5 -11 10 -3 6 -1 10 4 10 6 0 11 -4
11 -10z m37 -47 c-4 -3 1 -16 10 -27 17 -20 17 -20 -2 -6 -11 8 -22 15 -24 17
-5 3 9 23 16 23 4 0 3 -3 0 -7z m-996 -66 c-10 -9 -11 -8 -5 6 3 10 9 15 12
12 3 -3 0 -11 -7 -18z m-1284 -2 c0 -8 -4 -12 -9 -9 -7 5 -12 -8 -10 -27 1 -3
-6 -6 -13 -6 -11 0 -12 4 -4 14 6 7 8 13 3 13 -5 0 22 26 32 30 0 0 1 -7 1
-15z m1239 -67 c4 4 2 -1 -5 -11 -16 -20 -24 -16 -26 15 -2 18 -1 19 10 5 7
-9 16 -13 21 -9z m1146 4 c3 -10 0 -19 -6 -19 -7 0 -12 9 -12 19 0 10 3 18 7
18 4 0 9 -8 11 -18z m25 -14 c-3 -8 -6 -5 -6 6 -1 11 2 17 5 13 3 -3 4 -12 1
-19z m-2430 -13 c0 -8 -4 -12 -9 -9 -5 3 -6 10 -3 15 9 13 12 11 12 -6z m2447
-33 c2 -4 0 -14 -6 -22 -8 -12 -9 -12 -5 2 3 9 1 19 -6 22 -9 3 -9 5 0 5 6 1
14 -3 17 -7z m-1290 -127 c3 -9 -3 -19 -17 -25 -19 -10 -20 -9 -6 2 9 7 14 19
12 26 -6 17 4 15 11 -3z m1356 -29 c10 -13 10 -17 3 -12 -8 4 -13 2 -13 -4 0
-6 -5 -8 -12 -4 -9 6 -9 9 -1 11 7 3 9 12 6 21 -7 18 -5 17 17 -12z m-1353
-19 c0 -7 -9 -13 -19 -13 -18 0 -18 1 -2 13 10 7 18 13 19 13 1 0 2 -6 2 -13z
m1673 -3 c0 -2 -9 -8 -19 -13 -14 -8 -20 -7 -24 3 -4 9 3 14 19 14 13 0 24 -2
24 -4z m-42 -69 c-3 -3 -9 2 -12 12 -6 14 -5 15 5 6 7 -7 10 -15 7 -18z m46
-54 c3 -5 -1 -11 -9 -14 -9 -4 -12 -1 -8 9 6 16 10 17 17 5z m-1684 -66 c0 -1
-6 -7 -13 -13 -10 -8 -13 -6 -14 8 -1 13 3 17 13 13 8 -3 14 -6 14 -8z m-15
-55 c3 -5 1 -10 -4 -10 -6 0 -11 5 -11 10 0 6 2 10 4 10 3 0 8 -4 11 -10z
m1385 -94 c0 -3 -4 -8 -10 -11 -5 -3 -10 -1 -10 4 0 6 5 11 10 11 6 0 10 -2
10 -4z m-25 -46 c-3 -5 -12 -10 -18 -10 -7 0 -6 4 3 10 19 12 23 12 15 0z
m-1308 -26 c-3 -3 -12 -4 -19 -1 -8 3 -5 6 6 6 11 1 17 -2 13 -5z m8 -23 c-3
-5 -1 -12 5 -16 6 -4 8 -11 4 -16 -9 -14 -23 -1 -19 19 5 23 4 22 11 22 3 0 3
-4 -1 -9z m-1181 -29 c3 -5 -1 -9 -9 -9 -8 0 -12 4 -9 9 3 4 7 8 9 8 2 0 6 -4
9 -8z m2436 -49 c0 -1 -11 2 -25 9 -13 6 -22 15 -19 19 4 7 44 -19 44 -28z
m-2417 -23 c3 -11 1 -18 -4 -14 -5 3 -9 12 -9 20 0 20 7 17 13 -6z m1250 -26
c7 -7 -2 -34 -12 -34 -4 0 -7 9 -8 20 -2 19 8 26 20 14z m-1228 -84 c3 -6 -1
-7 -9 -4 -18 7 -21 14 -7 14 6 0 13 -4 16 -10z m1265 0 c0 -5 -2 -10 -4 -10
-3 0 -8 5 -11 10 -3 6 -1 10 4 10 6 0 11 -4 11 -10z m71 -27 c7 -10 9 -15 5
-11 -5 4 -15 3 -22 -3 -13 -10 -32 6 -20 18 3 4 6 1 6 -6 0 -7 5 -9 10 -6 6 4
8 11 5 16 -10 16 2 10 16 -8z m840 -66 c-10 -9 -11 -8 -5 6 3 10 9 15 12 12 3
-3 0 -11 -7 -18z m-136 -37 c-4 -6 -1 -19 7 -28 12 -15 11 -16 -4 -3 -12 9
-18 10 -18 2 0 -6 -5 -11 -10 -11 -6 0 -3 11 6 25 15 24 33 37 19 15z m-92
-46 c-2 -5 -8 -9 -13 -9 -6 0 -15 -7 -20 -15 -8 -11 -9 -9 -6 10 3 14 5 26 5
27 3 6 35 -6 34 -13z m-1863 -26 c0 -17 -23 -3 -26 16 -2 14 0 15 12 5 8 -6
14 -16 14 -21z m50 -58 c0 -5 0 -12 0 -15 0 -14 -13 -8 -16 8 -1 9 2 17 7 17
5 0 9 -4 9 -10z m18 -42 c-2 -7 2 -12 9 -11 7 2 10 -4 6 -12 -5 -13 -7 -13
-18 2 -7 10 -11 21 -9 25 8 12 14 9 12 -4z m81 -89 c-9 -18 -39 -16 -39 3 0 6
8 4 17 -3 14 -12 16 -12 11 2 -4 9 -1 16 7 16 10 0 11 -5 4 -18z m28 -50 c2
-16 -1 -19 -9 -11 -5 5 -7 15 -4 21 10 15 12 14 13 -10z m2096 -13 c-3 -4 -9
-2 -14 5 -13 22 -11 31 5 17 8 -7 12 -17 9 -22z m-53 -26 c0 -5 -5 -10 -11
-10 -5 0 -7 5 -4 10 3 6 8 10 11 10 2 0 4 -4 4 -10z m-1900 -55 c0 -2 -6 -8
-13 -14 -10 -8 -14 -7 -14 2 0 8 6 14 14 14 7 0 13 -1 13 -2z m93 -88 c-5 -11
-7 -11 -28 1 -19 11 -18 12 5 8 14 -1 24 -6 23 -9z m1623 -32 c-11 -8 -22 -12
-25 -9 -6 6 19 24 34 24 6 -1 1 -7 -9 -15z m-211 -105 c-3 -5 -12 -10 -18 -10
-7 0 -6 4 3 10 19 12 23 12 15 0z m-1088 -36 c2 -16 1 -16 -3 -1 -3 9 -9 15
-14 12 -5 -3 -11 -1 -14 4 -4 5 2 8 11 7 10 -2 19 -11 20 -22z m977 -24 c10
-13 9 -13 -6 -1 -10 7 -18 21 -17 30 0 13 1 14 6 1 3 -8 11 -22 17 -30z m-926
-4 c-7 -8 -15 -12 -17 -11 -5 6 10 25 20 25 5 0 4 -6 -3 -14z m812 -17 c0 -5
-4 -9 -8 -9 -5 0 -9 7 -9 15 0 8 4 12 9 9 4 -3 8 -9 8 -15z m-696 -17 c3 -5
-1 -9 -9 -9 -8 0 -12 4 -9 9 3 4 7 8 9 8 2 0 6 -4 9 -8z m209 -17 c-7 -21 -12
-19 -10 4 0 11 5 18 9 15 4 -3 5 -11 1 -19z m47 -9 c0 -6 5 -4 11 4 9 13 10
13 6 0 -2 -8 -11 -13 -18 -11 -8 2 -19 4 -26 4 -18 1 -7 14 12 14 8 0 15 -5
15 -11z"/>
<path d="M1817 2133 c-13 -12 -7 -22 12 -20 15 1 17 4 9 14 -12 15 -13 15 -21
6z"/>
<path d="M1726 2094 c-3 -7 2 -18 10 -25 8 -7 14 -8 13 -3 -4 24 3 33 22 29
12 -3 19 -1 15 2 -12 13 -55 10 -60 -3z"/>
<path d="M2193 2065 c0 -8 4 -12 9 -9 5 3 6 10 3 15 -9 13 -12 11 -12 -6z"/>
<path d="M1630 2019 c0 -5 5 -7 10 -4 6 3 10 8 10 11 0 2 -4 4 -10 4 -5 0 -10
-5 -10 -11z"/>
<path d="M2346 1978 c3 -4 11 -5 19 -1 21 7 19 12 -4 10 -11 0 -18 -5 -15 -9z"/>
<path d="M1505 1949 c-11 -16 -1 -19 13 -3 7 8 8 14 3 14 -5 0 -13 -5 -16 -11z"/>
<path d="M1481 1924 c0 -11 3 -14 6 -6 3 7 2 16 -1 19 -3 4 -6 -2 -5 -13z"/>
<path d="M1475 1889 c-4 -6 -5 -12 -2 -15 2 -3 7 2 10 11 7 17 1 20 -8 4z"/>
<path d="M1343 1754 c4 -4 2 -13 -5 -21 -6 -7 -9 -15 -6 -18 2 -2 11 4 20 15
15 17 15 19 0 25 -9 3 -13 3 -9 -1z"/>
<path d="M1356 1714 c-8 -20 -8 -24 2 -24 4 0 8 9 9 20 2 24 -3 26 -11 4z"/>
<path d="M2598 1693 c-10 -2 -18 -9 -18 -14 0 -6 8 -5 20 1 11 6 20 13 20 15
0 3 -1 4 -2 4 -2 -1 -11 -3 -20 -6z"/>
<path d="M2630 1401 c0 -6 4 -13 10 -16 6 -3 7 1 4 9 -7 18 -14 21 -14 7z"/>
<path d="M2625 1360 c-4 -6 1 -7 11 -3 13 5 15 3 8 -8 -5 -8 -9 -17 -10 -21
-1 -5 -2 -11 -3 -15 -1 -5 -6 -1 -12 7 -8 12 -10 12 -7 1 6 -22 37 -23 33 0
-2 10 1 21 6 24 10 7 3 25 -11 25 -5 0 -12 -4 -15 -10z"/>
<path d="M1333 1275 c0 -8 4 -12 9 -9 5 3 6 10 3 15 -9 13 -12 11 -12 -6z"/>
<path d="M1350 1221 c0 -6 4 -13 10 -16 6 -3 7 1 4 9 -7 18 -14 21 -14 7z"/>
<path d="M2575 1220 c-3 -5 -1 -10 4 -10 6 0 11 5 11 10 0 6 -2 10 -4 10 -3 0
-8 -4 -11 -10z"/>
<path d="M1390 1139 c0 -5 5 -7 10 -4 6 3 10 8 10 11 0 2 -4 4 -10 4 -5 0 -10
-5 -10 -11z"/>
<path d="M2500 1062 c9 -19 30 -23 30 -5 0 4 -3 3 -7 0 -3 -4 -12 1 -20 11
-13 15 -13 15 -3 -6z"/>
<path d="M1486 1001 c-3 -4 1 -16 8 -26 9 -13 15 -15 20 -6 4 6 0 14 -8 17 -9
3 -13 10 -10 15 3 5 3 9 0 9 -3 0 -7 -4 -10 -9z"/>
<path d="M2416 953 c-6 -14 -5 -15 5 -6 7 7 10 15 7 18 -3 3 -9 -2 -12 -12z"/>
<path d="M2380 930 c-8 -5 -12 -12 -9 -15 4 -3 12 1 19 10 14 17 11 19 -10 5z"/>
<path d="M2313 873 c0 -9 4 -10 14 -2 7 6 13 12 13 14 0 1 -6 2 -13 2 -8 0
-14 -6 -14 -14z"/>
<path d="M2177 826 c-3 -8 -2 -18 3 -21 13 -8 20 9 11 24 -6 10 -10 9 -14 -3z"/>
<path d="M2070 790 c-6 -11 -8 -20 -6 -20 3 0 10 9 16 20 6 11 8 20 6 20 -3 0
-10 -9 -16 -20z"/>
<path d="M1953 785 c0 -8 4 -12 9 -9 5 3 6 10 3 15 -9 13 -12 11 -12 -6z"/>
<path d="M1927 783 c-4 -3 -7 -11 -7 -17 0 -6 5 -5 12 2 6 6 9 14 7 17 -3 3
-9 2 -12 -2z"/>
<path d="M1500 2941 c0 -6 4 -13 10 -16 6 -3 7 1 4 9 -7 18 -14 21 -14 7z"/>
<path d="M1280 2931 c0 -6 4 -13 10 -16 6 -3 7 1 4 9 -7 18 -14 21 -14 7z"/>
<path d="M1820 2923 c0 -15 19 -37 26 -31 3 4 -1 14 -10 23 -9 9 -16 13 -16 8z"/>
<path d="M1870 2921 c0 -6 4 -13 10 -16 6 -3 7 1 4 9 -7 18 -14 21 -14 7z"/>
<path d="M1113 2887 c0 -8 6 -14 14 -14 9 0 10 4 2 14 -6 7 -12 13 -14 13 -1
0 -2 -6 -2 -13z"/>
<path d="M2082 2830 c0 -14 2 -19 5 -12 2 6 2 18 0 25 -3 6 -5 1 -5 -13z"/>
<path d="M853 2778 c1 -7 -4 -12 -10 -10 -7 1 -13 -5 -13 -15 0 -14 2 -14 20
2 22 20 26 35 10 35 -5 0 -9 -6 -7 -12z"/>
<path d="M556 2592 c-3 -5 1 -9 9 -9 8 0 12 4 9 9 -3 4 -7 8 -9 8 -2 0 -6 -4
-9 -8z"/>
<path d="M510 2539 c0 -5 5 -7 10 -4 6 3 10 8 10 11 0 2 -4 4 -10 4 -5 0 -10
-5 -10 -11z"/>
<path d="M2648 2384 c6 -12 9 -23 7 -26 -3 -3 3 -12 13 -21 16 -15 19 -15 19
-2 0 8 -6 15 -13 15 -8 0 -11 6 -8 13 3 8 -3 20 -12 28 -16 13 -16 12 -6 -7z"/>
<path d="M307 2293 c-11 -10 -8 -35 3 -28 6 4 8 10 5 15 -3 4 1 11 7 13 7 3 8
6 2 6 -6 1 -14 -2 -17 -6z"/>
<path d="M260 2219 c0 -5 5 -7 10 -4 6 3 10 8 10 11 0 2 -4 4 -10 4 -5 0 -10
-5 -10 -11z"/>
<path d="M241 2208 c-1 -21 15 -32 25 -17 4 7 3 9 -4 5 -6 -3 -13 2 -15 11 -4
16 -5 16 -6 1z"/>
<path d="M2775 2160 c3 -5 8 -10 11 -10 2 0 4 5 4 10 0 6 -5 10 -11 10 -5 0
-7 -4 -4 -10z"/>
<path d="M155 2071 c-3 -5 -2 -12 3 -15 5 -3 9 1 9 9 0 17 -3 19 -12 6z"/>
<path d="M2830 2039 c0 -5 5 -7 10 -4 6 3 10 8 10 11 0 2 -4 4 -10 4 -5 0 -10
-5 -10 -11z"/>
<path d="M2869 1998 c-8 -26 -5 -36 8 -31 11 4 12 8 3 13 -9 6 -9 9 1 13 10 4
10 6 2 6 -7 1 -13 0 -14 -1z"/>
<path d="M76 1827 c3 -10 9 -15 12 -12 3 3 0 11 -7 18 -10 9 -11 8 -5 -6z"/>
<path d="M90 1800 c-9 -6 -10 -10 -3 -10 6 0 15 5 18 10 8 12 4 12 -15 0z"/>
<path d="M70 1696 c7 -7 13 -7 20 0 6 6 3 10 -10 10 -13 0 -16 -4 -10 -10z"/>
<path d="M2936 1682 c-2 -4 9 -7 25 -8 16 -1 29 2 29 5 0 9 -48 12 -54 3z"/>
<path d="M2992 1640 c0 -14 2 -19 5 -12 2 6 2 18 0 25 -3 6 -5 1 -5 -13z"/>
<path d="M2956 1314 c-8 -22 -8 -24 6 -24 6 0 8 3 5 7 -4 3 -2 12 4 20 7 8 8
13 1 13 -5 0 -13 -7 -16 -16z"/>
<path d="M133 1073 c0 -10 6 -24 14 -31 7 -7 13 -9 13 -3 0 5 -4 12 -10 16 -5
3 -7 12 -3 20 3 8 1 15 -4 15 -5 0 -10 -8 -10 -17z"/>
<path d="M187 913 c-10 -9 -9 -23 1 -23 5 0 9 7 9 15 0 17 -1 18 -10 8z"/>
<path d="M2766 801 c-3 -5 1 -11 9 -14 9 -4 12 -1 8 9 -6 16 -10 17 -17 5z"/>
<path d="M2765 760 c3 -5 8 -10 11 -10 2 0 4 5 4 10 0 6 -5 10 -11 10 -5 0 -7
-4 -4 -10z"/>
<path d="M2707 679 c7 -7 15 -10 18 -7 3 3 -2 9 -12 12 -14 6 -15 5 -6 -5z"/>
<path d="M476 482 c-3 -4 4 -9 15 -9 23 -2 25 3 4 10 -8 4 -16 3 -19 -1z"/>
<path d="M612 367 c-8 -10 -6 -13 8 -14 13 -1 17 3 13 13 -6 17 -8 17 -21 1z"/>
<path d="M2260 265 c-7 -8 -17 -12 -23 -8 -6 3 -7 1 -3 -5 8 -14 33 -5 40 14
7 18 2 18 -14 -1z"/>
<path d="M791 246 c2 -2 15 -9 29 -15 24 -11 24 -11 6 3 -16 13 -49 24 -35 12z"/>
<path d="M2025 170 c-3 -5 -1 -10 5 -10 6 0 8 -5 4 -12 -6 -10 -4 -10 8 0 11
9 18 10 23 2 3 -5 12 -10 18 -9 9 0 8 2 -1 6 -6 2 -9 10 -6 15 4 6 2 8 -4 4
-6 -3 -13 -2 -17 4 -8 13 -22 13 -30 0z"/>
<path d="M1110 100 c-13 -8 -12 -10 3 -10 9 0 17 5 17 10 0 12 -1 12 -20 0z"/>
<path d="M1257 75 c-4 -8 -3 -16 1 -19 4 -3 9 4 9 15 2 23 -3 25 -10 4z"/>
<path d="M1589 78 c-6 -25 -3 -45 7 -45 9 0 10 5 3 19 -6 11 -6 18 0 18 5 0
12 -5 14 -10 3 -6 4 -5 3 2 -2 10 -25 25 -27 16z"/>
<path d="M1415 40 c3 -5 8 -10 11 -10 2 0 4 5 4 10 0 6 -5 10 -11 10 -5 0 -7
-4 -4 -10z"/>
<path d="M1550 20 c0 -5 5 -10 10 -10 6 0 10 5 10 10 0 6 -4 10 -10 10 -5 0
-10 -4 -10 -10z"/>
<path d="M1646 22 c-3 -5 1 -9 9 -9 8 0 12 4 9 9 -7 10 -11 10 -18 0z"/>
</g>
</svg>
